Arguments: 
  /usr/bin/node /usr/bin/yarn add firebase-functions

PATH: 
  /usr/local/sbin:/usr/local/bin:/usr/sbin:/usr/bin:/sbin:/bin:/usr/games:/usr/local/games:/snap/bin

Yarn version: 
  1.17.3

Node version: 
  12.7.0

Platform: 
  linux x64

Trace: 
  Error: getaddrinfo EAI_AGAIN registry.yarnpkg.com
      at GetAddrInfoReqWrap.onlookup [as oncomplete] (dns.js:60:26)

npm manifest: 
  {
    "name": "test.commerce",
    "description": "Accessori auto , fari xenon ....",
    "version": "1.0.0",
    "dependencies": {
      "@voerro/vue-tagsinput": "^2.0.0",
      "babel-polyfill": "^6.23.0",
      "braintree-web": "^3.44.1",
      "dexie": "^2.0.4",
      "bluebird": "latest",
      "braintree": "^2.16.0",
      "bson-objectid": "^1.3.0",
      "compression": "^1.6.2",
      "connect": "^3.6.6",
      "dotenv": "^6.0.0",
      "express": "^4.15.3",
      "fb": "^2.0.0",
      "firebase-admin": "^8.12.1",
      "formidable": "^1.2.1",
      "glob": "^7.1.3",
      "googleapis": "^37.2.0",
      "jsonwebtoken": "^8.1.0",
      "lru-cache": "^4.1.1",
      "minimist": "1.1.0",
      "mobx": "^5.11.0",
      "mobx-state-tree": "^3.14.0",
      "moment": "^2.24.0",
      "mongodb": "^3.1.0-beta4",
      "myutils": "https://bitbucket.org/BojDom/myutils.git",
      "nodemailer": "^5.1.1",
      "object-hash": "^1.3.1",
      "pm2": "^3.5.1",
      "rxjs": "^6.1.0",
      "sc-auth": "^6.0.0",
      "sc-broker": "^8.0.0",
      "sc-broker-cluster": "^9.0.0",
      "sc-errors": "^1.4.0",
      "sc-framework-health-check": "^2.0.0",
      "scc-broker-client": "^5.0.2",
      "serve-favicon": "^2.4.3",
      "serve-static": "1.13.2",
      "socketcluster": "^14.3.3",
      "socketcluster-client": "^14.2.1",
      "socketcluster-server": "^14.4.0",
      "universal-analytics": "^0.4.20",
      "unzipper": "^0.9.15",
      "url-parse": "^1.4.7",
      "validate-vat": "^0.5.1",
      "vue": "^2.6.10",
      "vue-analytics": "^5.17.0",
      "vue-client-only": "^2.0.0",
      "vue-easy-lightbox": "^0.3.11",
      "vue-i18n-extensions": "^0.1.0",
      "vue-light-gallery": "^1.0.1",
      "vue-meta": "2.0.4",
      "vue-password-strength-meter": "^1.4.2",
      "vue-recaptcha-v3": "^1.5.0",
      "vue-router": "^3.0.2",
      "vue-server-renderer": "^2.6.10",
      "vuex": "^3.1.0",
      "v-money": "^0.8.1",
      "vue-template-compiler": "^2.6.10",
      "vue2-animate": "^1.0.4",
      "vuetify": "^1.5.14",
      "vue-async-computed": "^3.6.1",
      "vuex-router-sync": "^4.1.2",
      "vue-i18n": "^7.3.3",
      "vue-social-sharing": "^2.3.3",
      "vue-tel-input": "^2.0.16",
      "vuedraggable": "^2.19.3",
      "vue-color": "^2.7.0",
      "webpack-hot-middleware": "^2.24.4",
      "zxcvbn": "^4.4.2"
    },
    "devDependencies": {
      "babel-plugin-transform-object-rest-spread": "^6.26.0",
      "domi": "https://bitbucket.org/BojDom/tpl.git",
      "morgan": "^1.9.1",
      "nan": "latest",
      "safe-buffer": "^5.1.2",
      "sc-hot-reboot": "^1.0.0",
      "semver": "^5.5.0",
      "webpack-bundle-analyzer": "^3.3.2"
    },
    "keywords": [
      "websocket",
      "server",
      "realtime",
      "cluster",
      "scalable"
    ],
    "readmeFilename": "README.md",
    "scripts": {
      "start": "node server.js",
      "dev": "pm2 start pm2.config.js --only app --env dev",
      "build": "rm -rf fe/dist && cd node_modules/domi/ && npm run build",
      "start:docker": "node dockerwait.js && node ${SOCKETCLUSTER_MASTER_CONTROLLER:-server.js}",
      "dbuild": "docker-compose up -d --build weppitalia && docker exec weppitalia npm run build && docker restart weppitalia"
    }
  }

yarn manifest: 
  No manifest

Lockfile: 
  No lockfile
