[{
	"name": "Italia",
	"code": "IT",
	"phone_code": "+39",
	"zone": 1
}, {
	"name": "France",
	"code": "FR",
	"phone_code": "+33",
	"zone": 1
}, {
	"name": "Switzerland",
	"code": "CH",
	"phone_code": "+41",
	"zone": 1
}, {
	"name": "Germany",
	"code": "DE",
	"phone_code": "+49",
	"zone": 1
}, {
	"name": "Croatia",
	"code": "HR",
	"phone_code": "+385",
	"zone": 1
}, {
	"name": "Spain",
	"code": "ES",
	"phone_code": "+34",
	"zone": 1
}, {
	"name": "Austria",
	"code": "AI",
	"phone_code": "+43"
}, {
	"name": "United Kingdom",
	"code": "GB",
	"phone_code": "+44",
	"zone": 1
}, {
	"name": "Afghanistan",
	"code": "AF",
	"phone_code": "+93"
}, {
	"name": "Albania",
	"code": "AL",
	"phone_code": "+355",
	"zone": 1
}, {
	"name": "Algeria",
	"code": "DZ",
	"phone_code": "+213"
}, {
	"name": "American Samoa",
	"code": "AS",
	"phone_code": "+1"
}, {
	"name": "Andorra",
	"code": "AD",
	"phone_code": "+376",
	"zone": 1
}, {
	"name": "Angola",
	"code": "AO",
	"phone_code": "+244"
},  {
	"name": "Antigua",
	"code": "AG",
	"phone_code": "+1"
}, {
	"name": "Argentina",
	"code": "AR",
	"phone_code": "+54"
}, {
	"name": "Armenia",
	"code": "AM",
	"phone_code": "+374",
	"zone": 1
}, {
	"name": "Aruba",
	"code": "AW",
	"phone_code": "+297"
}, {
	"name": "Australia",
	"code": "AU",
	"phone_code": "+61"
}, {
	"name": "Azerbaijan",
	"code": "AZ",
	"phone_code": "+994",
	"zone": 1
}, {
	"name": "Bahrain",
	"code": "BH",
	"phone_code": "+973"
}, {
	"name": "Bangladesh",
	"code": "BD",
	"phone_code": "+880"
}, {
	"name": "Barbados",
	"code": "BB",
	"phone_code": "+1"
}, {
	"name": "Belarus",
	"code": "BY",
	"phone_code": "+375",
	"zone": 1
}, {
	"name": "Belgium",
	"code": "BE",
	"phone_code": "+32",
	"zone": 1
}, {
	"name": "Belize",
	"code": "BZ",
	"phone_code": "+501"
}, {
	"name": "Benin",
	"code": "BJ",
	"phone_code": "+229"
}, {
	"name": "Bermuda",
	"code": "BM",
	"phone_code": "+1"
}, {
	"name": "Bhutan",
	"code": "BT",
	"phone_code": "+975"
}, {
	"name": "Bolivia",
	"code": "BO",
	"phone_code": "+591"
}, {
	"name": "Bosnia and Herzegovina",
	"code": "BA",
	"phone_code": "+387",
	"zone": 1
}, {
	"name": "Botswana",
	"code": "BW",
	"phone_code": "+267"
}, {
	"name": "Brazil",
	"code": "BR",
	"phone_code": "+55"
}, {
	"name": "British Indian Ocean Territory",
	"code": "IO",
	"phone_code": "+246"
}, {
	"name": "British Virgin Islands",
	"code": "VG",
	"phone_code": "+1"
}, {
	"name": "Brunei",
	"code": "BN",
	"phone_code": "+673"
}, {
	"name": "Bulgaria",
	"code": "BG",
	"phone_code": "+359",
	"zone": 1
}, {
	"name": "Burkina Faso",
	"code": "BF",
	"phone_code": "+226"
}, {
	"name": "Burma Myanmar",
	"code": "MM",
	"phone_code": "+95"
}, {
	"name": "Burundi",
	"code": "BI",
	"phone_code": "+257"
}, {
	"name": "Cambodia",
	"code": "KH",
	"phone_code": "+855"
}, {
	"name": "Cameroon",
	"code": "CM",
	"phone_code": "+237"
}, {
	"name": "Canada",
	"code": "CA",
	"phone_code": "+1"
}, {
	"name": "Cape Verde",
	"code": "CV",
	"phone_code": "+238"
}, {
	"name": "Cayman Islands",
	"code": "KY",
	"phone_code": "+1"
}, {
	"name": "Central African Republic",
	"code": "CF",
	"phone_code": "+236"
}, {
	"name": "Chile",
	"code": "CL",
	"phone_code": "+56"
}, {
	"name": "China",
	"code": "CN",
	"phone_code": "+86"
}, {
	"name": "Colombia",
	"code": "CO",
	"phone_code": "+57"
}, {
	"name": "Comoros",
	"code": "KM",
	"phone_code": "+269"
}, {
	"name": "Cook Islands",
	"code": "CK",
	"phone_code": "+682"
}, {
	"name": "Costa Rica",
	"code": "CR",
	"phone_code": "+506"
}, {
	"name": "Côte dIvoire",
	"code": "CI",
	"phone_code": "+225"
}, {
	"name": "Cuba",
	"code": "CU",
	"phone_code": "+53"
}, {
	"name": "Cyprus",
	"code": "CY",
	"phone_code": "+357",
	"zone": 1
}, {
	"name": "Czech Republic",
	"code": "CZ",
	"phone_code": "+420",
	"zone": 1
}, {
	"name": "Democratic Republic of Congo",
	"code": "CD",
	"phone_code": "+243"
}, {
	"name": "Denmark",
	"code": "DK",
	"phone_code": "+45",
	"zone": 1
}, {
	"name": "Djibouti",
	"code": "DJ",
	"phone_code": "+253"
}, {
	"name": "Dominica",
	"code": "DM",
	"phone_code": "+1"
}, {
	"name": "Dominican Republic",
	"code": "DO",
	"phone_code": "+1"
}, {
	"name": "Ecuador",
	"code": "EC",
	"phone_code": "+593"
}, {
	"name": "Egypt",
	"code": "EG",
	"phone_code": "+20"
}, {
	"name": "El Salvador",
	"code": "SV",
	"phone_code": "+503"
}, {
	"name": "Equatorial Guinea",
	"code": "GQ",
	"phone_code": "+240"
}, {
	"name": "Eritrea",
	"code": "ER",
	"phone_code": "+291"
}, {
	"name": "Estonia",
	"code": "EE",
	"phone_code": "+372",
	"zone": 1
}, {
	"name": "Ethiopia",
	"code": "ET",
	"phone_code": "+251"
}, {
	"name": "Falkland Islands",
	"code": "FK",
	"phone_code": "+500"
}, {
	"name": "Faroe Islands",
	"code": "FO",
	"phone_code": "+298",
	"zone": 1
}, {
	"name": "Federated States of Micronesia",
	"code": "FM",
	"phone_code": "+691"
}, {
	"name": "Fiji",
	"code": "FJ",
	"phone_code": "+679"
}, {
	"name": "Finland",
	"code": "FI",
	"phone_code": "+358",
	"zone": 1
}, {
	"name": "French Guiana",
	"code": "GF",
	"phone_code": "+594"
}, {
	"name": "French Polynesia",
	"code": "PF",
	"phone_code": "+689"
}, {
	"name": "Gabon",
	"code": "GA",
	"phone_code": "+241"
}, {
	"name": "Georgia",
	"code": "GE",
	"phone_code": "+995",
	"zone": 1
}, {
	"name": "Ghana",
	"code": "GH",
	"phone_code": "+233"
}, {
	"name": "Gibraltar",
	"code": "GI",
	"phone_code": "+350",
	"zone": 1
}, {
	"name": "Greece",
	"code": "GR",
	"phone_code": "+30",
	"zone": 1
}, {
	"name": "Greenland",
	"code": "GL",
	"phone_code": "+299",
	"zone": 1
}, {
	"name": "Grenada",
	"code": "GD",
	"phone_code": "+1"
}, {
	"name": "Guadeloupe",
	"code": "GP",
	"phone_code": "+590"
}, {
	"name": "Guam",
	"code": "GU",
	"phone_code": "+1"
}, {
	"name": "Guatemala",
	"code": "GT",
	"phone_code": "+502"
}, {
	"name": "Guinea",
	"code": "GN",
	"phone_code": "+224"
}, {
	"name": "Guinea-Bissau",
	"code": "GW",
	"phone_code": "+245"
}, {
	"name": "Guyana",
	"code": "GY",
	"phone_code": "+592"
}, {
	"name": "Haiti",
	"code": "HT",
	"phone_code": "+509"
}, {
	"name": "Honduras",
	"code": "HN",
	"phone_code": "+504"
}, {
	"name": "Hong Kong",
	"code": "HK",
	"phone_code": "+852"
}, {
	"name": "Hungary",
	"code": "HU",
	"phone_code": "+36",
	"zone": 1
}, {
	"name": "Iceland",
	"code": "IS",
	"phone_code": "+354",
	"zone": 1
}, {
	"name": "India",
	"code": "IN",
	"phone_code": "+91"
}, {
	"name": "Indonesia",
	"code": "ID",
	"phone_code": "+62"
}, {
	"name": "Iran",
	"code": "IR",
	"phone_code": "+98"
}, {
	"name": "Iraq",
	"code": "IQ",
	"phone_code": "+964"
}, {
	"name": "Ireland",
	"code": "IE",
	"phone_code": "+353",
	"zone": 1
}, {
	"name": "Israel",
	"code": "IL",
	"phone_code": "+972"
}, {
	"name": "Jamaica",
	"code": "JM",
	"phone_code": "+1"
}, {
	"name": "Japan",
	"code": "JP",
	"phone_code": "+81"
}, {
	"name": "Jordan",
	"code": "JO",
	"phone_code": "+962"
}, {
	"name": "Kazakhstan",
	"code": "KZ",
	"phone_code": "+7"
}, {
	"name": "Kenya",
	"code": "KE",
	"phone_code": "+254"
}, {
	"name": "Kiribati",
	"code": "KI",
	"phone_code": "+686"
}, {
	"name": "Kosovo",
	"code": "XK",
	"phone_code": "+383"
}, {
	"name": "Kuwait",
	"code": "KW",
	"phone_code": "+965"
}, {
	"name": "Kyrgyzstan",
	"code": "KG",
	"phone_code": "+996"
}, {
	"name": "Laos",
	"code": "LA",
	"phone_code": "+856"
}, {
	"name": "Latvia",
	"code": "LV",
	"phone_code": "+371",
	"zone": 1
}, {
	"name": "Lebanon",
	"code": "LB",
	"phone_code": "+961"
}, {
	"name": "Lesotho",
	"code": "LS",
	"phone_code": "+266"
}, {
	"name": "Liberia",
	"code": "LR",
	"phone_code": "+231"
}, {
	"name": "Libya",
	"code": "LY",
	"phone_code": "+218"
}, {
	"name": "Liechtenstein",
	"code": "LI",
	"phone_code": "+423",
	"zone": 1
}, {
	"name": "Lithuania",
	"code": "LT",
	"phone_code": "+370",
	"zone": 1
}, {
	"name": "Luxembourg",
	"code": "LU",
	"phone_code": "+352",
	"zone": 1
}, {
	"name": "Macau",
	"code": "MO",
	"phone_code": "+853"
}, {
	"name": "Macedonia",
	"code": "MK",
	"phone_code": "+389",
	"zone": 1
}, {
	"name": "Madagascar",
	"code": "MG",
	"phone_code": "+261"
}, {
	"name": "Malawi",
	"code": "MW",
	"phone_code": "+265"
}, {
	"name": "Malaysia",
	"code": "MY",
	"phone_code": "+60"
}, {
	"name": "Maldives",
	"code": "MV",
	"phone_code": "+960"
}, {
	"name": "Mali",
	"code": "ML",
	"phone_code": "+223"
}, {
	"name": "Malta",
	"code": "MT",
	"phone_code": "+356",
	"zone": 1
}, {
	"name": "Marshall Islands",
	"code": "MH",
	"phone_code": "+692"
}, {
	"name": "Martinique",
	"code": "MQ",
	"phone_code": "+596"
}, {
	"name": "Mauritania",
	"code": "MR",
	"phone_code": "+222"
}, {
	"name": "Mauritius",
	"code": "MU",
	"phone_code": "+230"
}, {
	"name": "Mayotte",
	"code": "YT",
	"phone_code": "+262"
}, {
	"name": "Mexico",
	"code": "MX",
	"phone_code": "+52"
}, {
	"name": "Moldova",
	"code": "MD",
	"phone_code": "+373",
	"zone": 1
}, {
	"name": "Monaco",
	"code": "MC",
	"phone_code": "+377",
	"zone": 1
}, {
	"name": "Mongolia",
	"code": "MN",
	"phone_code": "+976"
}, {
	"name": "Montenegro",
	"code": "ME",
	"phone_code": "+382"
}, {
	"name": "Montserrat",
	"code": "MS",
	"phone_code": "+1"
}, {
	"name": "Morocco",
	"code": "MA",
	"phone_code": "+212"
}, {
	"name": "Mozambique",
	"code": "MZ",
	"phone_code": "+258"
}, {
	"name": "Namibia",
	"code": "NA",
	"phone_code": "+264"
}, {
	"name": "Nauru",
	"code": "NR",
	"phone_code": "+674"
}, {
	"name": "Nepal",
	"code": "NP",
	"phone_code": "+977"
}, {
	"name": "Netherlands",
	"code": "NL",
	"phone_code": "+31",
	"zone": 1
}, {
	"name": "Netherlands Antilles",
	"code": "AN",
	"phone_code": "+599"
}, {
	"name": "New Caledonia",
	"code": "NC",
	"phone_code": "+687"
}, {
	"name": "New Zealand",
	"code": "NZ",
	"phone_code": "+64"
}, {
	"name": "Nicaragua",
	"code": "NI",
	"phone_code": "+505"
}, {
	"name": "Niger",
	"code": "NE",
	"phone_code": "+227"
}, {
	"name": "Nigeria",
	"code": "NG",
	"phone_code": "+234"
}, {
	"name": "Niue",
	"code": "NU",
	"phone_code": "+683"
}, {
	"name": "Norfolk Island",
	"code": "NF",
	"phone_code": "+672"
}, {
	"name": "North Korea",
	"code": "KP",
	"phone_code": "+850"
}, {
	"name": "Northern Mariana Islands",
	"code": "MP",
	"phone_code": "+1"
}, {
	"name": "Norway",
	"code": "NO",
	"phone_code": "+47",
	"zone": 1
}, {
	"name": "Oman",
	"code": "OM",
	"phone_code": "+968"
}, {
	"name": "Pakistan",
	"code": "PK",
	"phone_code": "+92"
}, {
	"name": "Palau",
	"code": "PW",
	"phone_code": "+680"
}, {
	"name": "Palestine",
	"code": "PS",
	"phone_code": "+970"
}, {
	"name": "Panama",
	"code": "PA",
	"phone_code": "+507"
}, {
	"name": "Papua New Guinea",
	"code": "PG",
	"phone_code": "+675"
}, {
	"name": "Paraguay",
	"code": "PY",
	"phone_code": "+595"
}, {
	"name": "Peru",
	"code": "PE",
	"phone_code": "+51"
}, {
	"name": "Philippines",
	"code": "PH",
	"phone_code": "+63"
}, {
	"name": "Poland",
	"code": "PL",
	"phone_code": "+48",
	"zone": 1
}, {
	"name": "Portugal",
	"code": "PT",
	"phone_code": "+351",
	"zone": 1
}, {
	"name": "Puerto Rico",
	"code": "PR",
	"phone_code": "+1"
}, {
	"name": "Qatar",
	"code": "QA",
	"phone_code": "+974"
}, {
	"name": "Republic of the Congo",
	"code": "CG",
	"phone_code": "+242"
}, {
	"name": "Réunion",
	"code": "RE",
	"phone_code": "+262"
}, {
	"name": "Romania",
	"code": "RO",
	"phone_code": "+40",
	"zone": 1
}, {
	"name": "Russia",
	"code": "RU",
	"phone_code": "+7",
	"zone": 1
}, {
	"name": "Rwanda",
	"code": "RW",
	"phone_code": "+250"
}, {
	"name": "Saint Barthélemy",
	"code": "BL",
	"phone_code": "+590"
}, {
	"name": "Saint Helena",
	"code": "SH",
	"phone_code": "+290"
}, {
	"name": "Saint Kitts and Nevis",
	"code": "KN",
	"phone_code": "+1"
}, {
	"name": "Saint Martin",
	"code": "MF",
	"phone_code": "+590"
}, {
	"name": "Saint Pierre and Miquelon",
	"code": "PM",
	"phone_code": "+508"
}, {
	"name": "Saint Vincent and the Grenadines",
	"code": "VC",
	"phone_code": "+1"
}, {
	"name": "Samoa",
	"code": "WS",
	"phone_code": "+685"
}, {
	"name": "San Marino",
	"code": "SM",
	"phone_code": "+378",
	"zone": 1
}, {
	"name": "São Tomé and Príncipe",
	"code": "ST",
	"phone_code": "+239"
}, {
	"name": "Saudi Arabia",
	"code": "SA",
	"phone_code": "+966"
}, {
	"name": "Senegal",
	"code": "SN",
	"phone_code": "+221"
}, {
	"name": "Serbia",
	"code": "RS",
	"phone_code": "+381"
}, {
	"name": "Seychelles",
	"code": "SC",
	"phone_code": "+248"
}, {
	"name": "Sierra Leone",
	"code": "SL",
	"phone_code": "+232"
}, {
	"name": "Singapore",
	"code": "SG",
	"phone_code": "+65"
}, {
	"name": "Slovakia",
	"code": "SK",
	"phone_code": "+421",
	"zone": 1
}, {
	"name": "Slovenia",
	"code": "SI",
	"phone_code": "+386",
	"zone": 1
}, {
	"name": "Solomon Islands",
	"code": "SB",
	"phone_code": "+677"
}, {
	"name": "Somalia",
	"code": "SO",
	"phone_code": "+252"
}, {
	"name": "South Africa",
	"code": "ZA",
	"phone_code": "+27"
}, {
	"name": "South Korea",
	"code": "KR",
	"phone_code": "+82"
}, {
	"name": "Sri Lanka",
	"code": "LK",
	"phone_code": "+94"
}, {
	"name": "St. Lucia",
	"code": "LC",
	"phone_code": "+1"
}, {
	"name": "Sudan",
	"code": "SD",
	"phone_code": "+249"
}, {
	"name": "Suriname",
	"code": "SR",
	"phone_code": "+597"
}, {
	"name": "Swaziland",
	"code": "SZ",
	"phone_code": "+268"
}, {
	"name": "Sweden",
	"code": "SE",
	"phone_code": "+46",
	"zone": 1
}, {
	"name": "Syria",
	"code": "SY",
	"phone_code": "+963"
}, {
	"name": "Taiwan",
	"code": "TW",
	"phone_code": "+886"
}, {
	"name": "Tajikistan",
	"code": "TJ",
	"phone_code": "+992"
}, {
	"name": "Tanzania",
	"code": "TZ",
	"phone_code": "+255"
}, {
	"name": "Thailand",
	"code": "TH",
	"phone_code": "+66"
}, {
	"name": "The Bahamas",
	"code": "BS",
	"phone_code": "+1"
}, {
	"name": "The Gambia",
	"code": "GM",
	"phone_code": "+220"
}, {
	"name": "Timor-Leste",
	"code": "TL",
	"phone_code": "+670"
}, {
	"name": "Togo",
	"code": "TG",
	"phone_code": "+228"
}, {
	"name": "Tokelau",
	"code": "TK",
	"phone_code": "+690"
}, {
	"name": "Tonga",
	"code": "TO",
	"phone_code": "+676"
}, {
	"name": "Trinidad and Tobago",
	"code": "TT",
	"phone_code": "+1"
}, {
	"name": "Tunisia",
	"code": "TN",
	"phone_code": "+216"
}, {
	"name": "Turkey",
	"code": "TR",
	"phone_code": "+90"
}, {
	"name": "Turkmenistan",
	"code": "TM",
	"phone_code": "+993"
}, {
	"name": "Turks and Caicos Islands",
	"code": "TC",
	"phone_code": "+1"
}, {
	"name": "Tuvalu",
	"code": "TV",
	"phone_code": "+688"
}, {
	"name": "Uganda",
	"code": "UG",
	"phone_code": "+256"
}, {
	"name": "Ukraine",
	"code": "UA",
	"phone_code": "+380",
	"zone": 1
}, {
	"name": "United Arab Emirates",
	"code": "AE",
	"phone_code": "+971"
}, {
	"name": "United States",
	"code": "US",
	"phone_code": "+1"
}, {
	"name": "Uruguay",
	"code": "UY",
	"phone_code": "+598"
}, {
	"name": "US Virgin Islands",
	"code": "VI",
	"phone_code": "+1"
}, {
	"name": "Uzbekistan",
	"code": "UZ",
	"phone_code": "+998"
}, {
	"name": "Vanuatu",
	"code": "VU",
	"phone_code": "+678"
}, {
	"name": "Vatican City",
	"code": "VA",
	"phone_code": "+39",
	"zone": 1
}, {
	"name": "Venezuela",
	"code": "VE",
	"phone_code": "+58"
}, {
	"name": "Vietnam",
	"code": "VN",
	"phone_code": "+84"
}, {
	"name": "Wallis and Futuna",
	"code": "WF",
	"phone_code": "+681"
}, {
	"name": "Yemen",
	"code": "YE",
	"phone_code": "+967"
}, {
	"name": "Zambia",
	"code": "ZM",
	"phone_code": "+260"
}, {
	"name": "Zimbabwe",
	"code": "ZW",
	"phone_code": "+263"
}]